{
    "KPlugin": {
        "BugReportUrl": "https://bugs.kde.org/enter_bug.cgi?product=systemsettings&component=kcm_deviceautomounter",
        "Description": "Configure automatic mounting of disks and volumes",
        "Description[ar]": "اضبط الضم الآليّ للأقراص و الأقسام",
        "Description[bg]": "Конфигуриране на автоматично монтиране на дискове и дялове",
        "Description[ca@valencia]": "Configura el muntatge automàtic de discs i volums",
        "Description[ca]": "Configura el muntatge automàtic de discos i volums",
        "Description[cs]": "Nastavit automatické připojování disků a úložišť",
        "Description[en_GB]": "Configure automatic mounting of disks and volumes",
        "Description[eo]": "Agordi aŭtomatan muntadon de diskoj kaj datumportiloj",
        "Description[es]": "Configurar el montaje automático de discos y volúmenes",
        "Description[eu]": "Konfiguratu diskoak eta bolumenak automatikoki muntatzea",
        "Description[fi]": "Asemien ja taltioiden automaattisen liittämisen asetukset",
        "Description[fr]": "Configurer le montage automatique des disques et des volumes",
        "Description[gl]": "Configura a montaxe automática de discos e volumes.",
        "Description[he]": "הגדרת עיגון כוננים וכרכים אוטומטית",
        "Description[hu]": "A lemezek és kötetek automatikus csatolásának beállítása",
        "Description[ia]": "Configura le montar automatic de discos e volumines",
        "Description[is]": "Grunnstilla sjálfvirka tengingu diska og geymslumiðla",
        "Description[it]": "Configura il montaggio automatico di dischi e volumi",
        "Description[ja]": "ディスクとボリュームの自動マウントを設定",
        "Description[ka]": "დისკების და ტომების ავტომატური მიმაგრების მორგება",
        "Description[ko]": "디스크와 볼륨의 자동 마운트 설정",
        "Description[nl]": "Automatisch aankoppelen van schijven en volumes configureren",
        "Description[nn]": "Set opp automatisk montering av diskar og lagringsmedium",
        "Description[pa]": "ਡਿਸਕਾਂ ਅਤੇ ਵਾਲੀਅਮਾਂ ਨੂੰ ਆਟੋਮੈਟਿਕ ਮਾਊਂਟ ਕਰਨ ਦੀ ਸੰਰਚਨਾ",
        "Description[pl]": "Ustaw samopodpinanie dysków i wolumenów",
        "Description[pt_BR]": "Configura a montagem automática de discos e volumes",
        "Description[ru]": "Настройка автоматического монтирования дисков и томов",
        "Description[sk]": "Nastavenie automatického pripájania diskov a zväzkov",
        "Description[sl]": "Konfiguriraj samodejni priklop diskov in skupin diskov",
        "Description[ta]": "வட்டுகளும் வகிர்வுகளும் தானாக ஏற்றப்படுவதை அமையுங்கள்",
        "Description[tr]": "Disklerin ve bölümlerinin otomatik bağlanmasını yapılandırın",
        "Description[uk]": "Налаштувати автоматичне монтування дисків та томів",
        "Description[x-test]": "xxConfigure automatic mounting of disks and volumesxx",
        "Description[zh_CN]": "配置磁盘和存储卷的自动挂载",
        "Description[zh_TW]": "設定硬碟及磁碟區的自動掛載",
        "Icon": "drive-removable-media",
        "Name": "Device Auto-Mount",
        "Name[ar]": "الضم الآلي لجهاز",
        "Name[bg]": "Автоматично монтиране на устройства",
        "Name[ca@valencia]": "Muntatge automàtic de dispositius",
        "Name[ca]": "Muntatge automàtic de dispositius",
        "Name[cs]": "Automatické připojování zařízení",
        "Name[de]": "Geräte automatisch einhängen",
        "Name[en_GB]": "Device Auto-Mount",
        "Name[eo]": "Aŭtomata muntado de aparato",
        "Name[es]": "Montaje automático de dispositivos",
        "Name[eu]": "Gailuen muntatze automatikoa",
        "Name[fi]": "Laitteiden liittäminen automaattisesti",
        "Name[fr]": "Montage automatique du périphérique",
        "Name[gl]": "Montaxe automática de dispositivos",
        "Name[he]": "עיגון התקנים אוטומטית",
        "Name[hu]": "Automatikus eszközcsatolás",
        "Name[ia]": "Montar automatic de dispositivo",
        "Name[is]": "Sjálfvirk tenging tækis",
        "Name[it]": "Montaggio automatico dispositivo",
        "Name[ja]": "デバイスの自動マウント",
        "Name[ka]": "მოწყობილობის ავტომატური მიმაგრება",
        "Name[ko]": "장치 자동 마운트",
        "Name[nl]": "Automatisch aankoppelen van apparaat",
        "Name[nn]": "Automatisk einingsmontering",
        "Name[pa]": "ਡਿਵਾਈਸ ਆਟੋ-ਮਾਊਂਟ",
        "Name[pl]": "Samopodpinanie urządzeń",
        "Name[pt_BR]": "Montagem Automática de Dispositivo",
        "Name[ru]": "Автоматическое монтирование",
        "Name[sk]": "Automatické pripojenie zariadenia",
        "Name[sl]": "Samodejni priklop naprave",
        "Name[ta]": "தானியக்க சாதன ஏற்றல்",
        "Name[tr]": "Aygıtı Kendiliğinden Bağla",
        "Name[uk]": "Автоматичне монтування пристроїв",
        "Name[x-test]": "xxDevice Auto-Mountxx",
        "Name[zh_CN]": "设备自动挂载",
        "Name[zh_TW]": "裝置自動掛載"
    },
    "X-DocPath": "kcontrol/solid-device-automounter/index.html",
    "X-KDE-Keywords": "Automount,Mount,Disk,Disks,Removable,Device,Devices,Automatic",
    "X-KDE-Keywords[ar]": "ضم,إزالة,أجهزة,آلي",
    "X-KDE-Keywords[ast]": "Montar,Montaxe,Estrayer,Estraición,Estrayible,Preséu,Preseos",
    "X-KDE-Keywords[az]": "Mount,Removable,Devices,Automatic,Qoşulma,Çıxarılabilən,Cihazlar,Avtomatik",
    "X-KDE-Keywords[ca@valencia]": "Muntatge,Extraïble,Dispositius,Automàtic",
    "X-KDE-Keywords[ca]": "Muntatge,Extraïble,Dispositius,Automàtic",
    "X-KDE-Keywords[cs]": "Připojení,Odpojitelné,Zařízení,Automatické",
    "X-KDE-Keywords[da]": "Montering,flytbare,enheder,automatisk",
    "X-KDE-Keywords[de]": "Automatisches Einhängen von Wechselmedien,Wechselmedien,Speichermedien",
    "X-KDE-Keywords[el]": "Προσάρτηση,αφαιρούμενες,συσκευές,αυτόματη",
    "X-KDE-Keywords[en_GB]": "Mount,Removable,Devices,Automatic",
    "X-KDE-Keywords[es]": "Montar,Extraíble,Dispositivos,Automático",
    "X-KDE-Keywords[et]": "Eemaldatavad seadmed,seadmed,automaatne,ühendamine",
    "X-KDE-Keywords[eu]": "muntatu,aldagarri,gailuak,automatikoa",
    "X-KDE-Keywords[fi]": "Liitä,Liittäminen,Irrotettava,Laitteet,Automaattinen",
    "X-KDE-Keywords[fr]": "Monter, Amovible, Périphériques, Automatique",
    "X-KDE-Keywords[gl]": "Montar,Extraíbel,Dispositivo,Automático",
    "X-KDE-Keywords[hu]": "Mount,Cserélhető,Eszközök,Automatikus",
    "X-KDE-Keywords[ia]": "Montar,Removibile,Dispositivos,Automatic",
    "X-KDE-Keywords[id]": "Mount,Dapat dilepas,Perangkat,Otomatis",
    "X-KDE-Keywords[it]": "Montaggio,rimovibile,dispositivi,automatico",
    "X-KDE-Keywords[ko]": "Mount,Removable,Devices,Automatic,마운트,자동,이동식,장치",
    "X-KDE-Keywords[lt]": "Prijungti,Keičiamieji,Įrenginiai,Automatiškai,keiciamieji,irenginiai,automatiskai",
    "X-KDE-Keywords[nl]": "Aankoppelen,verwijderbaar,apparaten,automatisch",
    "X-KDE-Keywords[nn]": "montering,flyttbar,minnepinne,minnepenn,einingar,automatisk",
    "X-KDE-Keywords[pa]": "ਮਾਊਂਟ,ਹਟਾਉਣਯੋਗ,ਡਿਵਾਈਸ,ਆਟੋਮੈਟਿਕ,ਆਪਣੇ-ਆਪ,ਆਟੋਮੈਟਿਕ",
    "X-KDE-Keywords[pl]": "Montowanie,Wymienne,Urządzenia,Automatycznie",
    "X-KDE-Keywords[pt]": "Montagem,Removível,Dispositivos,Automática",
    "X-KDE-Keywords[pt_BR]": "Montagem,Removível,Automática,Dispositivos",
    "X-KDE-Keywords[ro]": "Montează,Amovibil,Dispozitive,Automat",
    "X-KDE-Keywords[ru]": "Mount,Removable,Devices,Automatic,подключение,внешние,носители,автоматическое,переносные,съёмные,съемные,устройства,монтирование",
    "X-KDE-Keywords[sk]": "Pripojiť,Vymeniteľný,Zariadenia,Automaticky",
    "X-KDE-Keywords[sl]": "priklapljanje,priklop,odstranljivo,odstranljive,naprave,samodejno,avtomatično",
    "X-KDE-Keywords[sr@ijekavian]": "Mount,Removable,Devices,Automatic,монтирање,уклоњив,уређај,аутоматски",
    "X-KDE-Keywords[sr@ijekavianlatin]": "Mount,Removable,Devices,Automatic,montiranje,uklonjiv,uređaj,automatski",
    "X-KDE-Keywords[sr@latin]": "Mount,Removable,Devices,Automatic,montiranje,uklonjiv,uređaj,automatski",
    "X-KDE-Keywords[sr]": "Mount,Removable,Devices,Automatic,монтирање,уклоњив,уређај,аутоматски",
    "X-KDE-Keywords[sv]": "Montera,Flyttbar,Enheter,Automatisk",
    "X-KDE-Keywords[ta]": "Mount,Removable,Devices,Automatic,ஏற்று,தானியங்கி, தானியக்க,கழற்றக்கூடிய,சாதனங்கள்,ஏற்றம்",
    "X-KDE-Keywords[tr]": "Bağla,Çıkarılabilir,Aygıtlar,Otomatik",
    "X-KDE-Keywords[uk]": "Mount,Removable,Devices,Automatic,монтування,портативний,змінний,пристрій,пристрої,автоматично,автоматичне",
    "X-KDE-Keywords[vi]": "Mount,Removable,Devices,Automatic,gắn kết,gắn ngoài,thiết bị,tự động",
    "X-KDE-Keywords[x-test]": "xxMountxx,xxRemovablexx,xxDevicesxx,xxAutomaticxx",
    "X-KDE-Keywords[zh_CN]": "Mount,Removable,Devices,Automatic,挂载,移动,设备,自动",
    "X-KDE-Keywords[zh_TW]": "Mount,Removable,Devices,Automatic",
    "X-KDE-System-Settings-Parent-Category": "removable-storage"
}
